{
  "results": [
    {
      "popularity": 458.719,
      "vote_count": 4305,
      "video": false,
      "poster_path": "/udDclJoHjfjb8Ekgsd4FDteOkCU.jpg",
      "id": 475557,
      "adult": false,
      "backdrop_path": "/n6bUvigpRFqSwmPp1m2YADdbRBc.jpg",
      "original_language": "en",
      "original_title": "Joker",
      "genre_ids": [
        80,
        18,
        53
      ],
      "title": "Joker",
      "vote_average": 8.6,
      "overview": "During the 1980s, a failed stand-up comedian is driven insane and turns to a life of crime and chaos in Gotham City while becoming an infamous psychopathic crime figure.",
      "release_date": "2019-10-04"
    },
    {
      "popularity": 231.895,
      "vote_count": 472,
      "video": false,
      "poster_path": "/tBuabjEqxzoUBHfbyNbd8ulgy5j.jpg",
      "id": 420809,
      "adult": false,
      "backdrop_path": "/skvI4rYFrKXS73BJxWGH54Omlvv.jpg",
      "original_language": "en",
      "original_title": "Maleficent: Mistress of Evil",
      "genre_ids": [
        12,
        14,
        10751
      ],
      "title": "Maleficent: Mistress of Evil",
      "vote_average": 7.2,
      "overview": "Maleficent and her goddaughter Aurora begin to question the complex family ties that bind them as they are pulled in different directions by impending nuptials, unexpected allies, and dark new forces at play.",
      "release_date": "2019-10-18"
    },
    {
      "popularity": 205.626,
      "vote_count": 95,
      "video": false,
      "poster_path": "/vqzNJRH4YyquRiWxCCOH0aXggHI.jpg",
      "id": 290859,
      "adult": false,
      "backdrop_path": "/a6cDxdwaQIFjSkXf7uskg78ZyTq.jpg",
      "original_language": "en",
      "original_title": "Terminator: Dark Fate",
      "genre_ids": [
        28,
        878
      ],
      "title": "Terminator: Dark Fate",
      "vote_average": 6.8,
      "overview": "More than two decades have passed since Sarah Connor prevented Judgment Day, changed the future, and re-wrote the fate of the human race. Dani Ramos is living a simple life in Mexico City with her brother and father when a highly advanced and deadly new Terminator – a Rev-9 – travels back through time to hunt and kill her. Dani's survival depends on her joining forces with two warriors: Grace, an enhanced super-soldier from the future, and a battle-hardened Sarah Connor. As the Rev-9 ruthlessly destroys everything and everyone in its path on the hunt for Dani, the three are led to a T-800 from Sarah’s past that may be their last best hope.",
      "release_date": "2019-11-01"
    },
    {
      "popularity": 152.512,
      "vote_count": 19,
      "video": false,
      "poster_path": "/vn94LlNrbUWIZZyAdmvUepFBeaY.jpg",
      "id": 449924,
      "adult": false,
      "backdrop_path": "/ekP6EVxL81lZ4ivcqPsoZ72rY0h.jpg",
      "original_language": "cn",
      "original_title": "葉問4",
      "genre_ids": [
        28,
        18,
        36
      ],
      "title": "Ip Man 4: The Finale",
      "vote_average": 5.4,
      "overview": "Ip Man 4 is an upcoming Hong Kong biographical martial arts film directed by Wilson Yip and produced by Raymond Wong. It is the fourth in the Ip Man film series based on the life of the Wing Chun grandmaster of the same name and features Donnie Yen reprising the role. The film began production in April 2018 and ended in July the same year.",
      "release_date": "2019-10-18"
    },
    {
      "popularity": 87.5,
      "vote_count": 205,
      "video": false,
      "poster_path": "/6Vr7GRINeaDLwfyXBpqO1VfmCrL.jpg",
      "id": 454640,
      "adult": false,
      "backdrop_path": "/k7sE3loFwuU2mqf7FbZBeE3rjBa.jpg",
      "original_language": "en",
      "original_title": "The Angry Birds Movie 2",
      "genre_ids": [
        28,
        12,
        16,
        35,
        10751
      ],
      "title": "The Angry Birds Movie 2",
      "vote_average": 6.5,
      "overview": "Red, Chuck, Bomb and the rest of their feathered friends are surprised when a green pig suggests that they put aside their differences and unite to fight a common threat. Aggressive birds from an island covered in ice are planning to use an elaborate weapon to destroy the fowl and swine.",
      "release_date": "2019-08-14"
    },
    {
      "popularity": 108.199,
      "vote_count": 156,
      "video": false,
      "poster_path": "/pIcV8XXIIvJCbtPoxF9qHMKdRr2.jpg",
      "id": 338967,
      "adult": false,
      "backdrop_path": "/jCCdt0e8Xe9ttvevD4S3TSMNdH.jpg",
      "original_language": "en",
      "original_title": "Zombieland: Double Tap",
      "genre_ids": [
        28,
        35,
        27
      ],
      "title": "Zombieland: Double Tap",
      "vote_average": 7.5,
      "overview": "The group will face a new zombie threat as a new breed of zombie has developed. This new super-zombie type is faster, bigger, and stronger than the previous strain of zombies and harder to kill. These super-zombies have started grouping up into a horde going from city to city leaving a path of destruction behind them.",
      "release_date": "2019-10-18"
    },
    {
      "popularity": 126.487,
      "vote_count": 1166,
      "video": false,
      "poster_path": "/ePXuKdXZuJx8hHMNr2yM4jY2L7Z.jpg",
      "id": 559969,
      "adult": false,
      "backdrop_path": "/ijiE9WoGSwSzM16zTxvUneJ8RXc.jpg",
      "original_language": "en",
      "original_title": "El Camino: A Breaking Bad Movie",
      "genre_ids": [
        80,
        18,
        53
      ],
      "title": "El Camino: A Breaking Bad Movie",
      "vote_average": 7.1,
      "overview": "In the wake of his dramatic escape from captivity, Jesse Pinkman must come to terms with his past in order to forge some kind of future.",
      "release_date": "2019-10-11"
    },
    {
      "popularity": 79.185,
      "vote_count": 430,
      "video": false,
      "poster_path": "/d0FWbzrmm99BTfUqf1Lbjl2zu3S.jpg",
      "id": 417384,
      "adult": false,
      "backdrop_path": "/qBI3Spq93lNxGzecdGpbwV5lOvU.jpg",
      "original_language": "en",
      "original_title": "Scary Stories to Tell in the Dark",
      "genre_ids": [
        27,
        53
      ],
      "title": "Scary Stories to Tell in the Dark",
      "vote_average": 6.3,
      "overview": "Mill Valley, Pennsylvania, Halloween night, 1968. After playing a joke on a school bully, Sarah and her friends decide to sneak into a supposedly haunted house that once belonged to the powerful Bellows family, unleashing dark forces that they will be unable to control.",
      "release_date": "2019-08-09"
    },
    {
      "popularity": 77.814,
      "vote_count": 55,
      "video": false,
      "poster_path": "/4E2lyUGLEr3yH4q6kJxPkQUhX7n.jpg",
      "id": 568012,
      "adult": false,
      "backdrop_path": "/iGnCzXEx0cFlUbpyAMeHwHWhPhx.jpg",
      "original_language": "ja",
      "original_title": "ワンピーススタンピード",
      "genre_ids": [
        28,
        12,
        16
      ],
      "title": "One Piece: Stampede",
      "vote_average": 7.6,
      "overview": "One Piece: Stampede is a stand-alone film that celebrates the anime's 20th Anniversary and takes place outside the canon of the \"One Piece\" TV series. Monkey D. Luffy and his Straw Hat pirate crew are invited to a massive Pirate Festival that brings many of the most iconic characters from throughout the franchise to participate in competition with the Straw Hats to find Roger's treasure. It also pits the Straw Hats against a new enemy named Bullet, a former member of Roger's crew.",
      "release_date": "2019-10-24"
    },
    {
      "popularity": 92.86,
      "vote_count": 1762,
      "video": false,
      "poster_path": "/zfE0R94v1E8cuKAerbskfD3VfUt.jpg",
      "id": 474350,
      "adult": false,
      "backdrop_path": "/8moTOzunF7p40oR5XhlDvJckOSW.jpg",
      "original_language": "en",
      "original_title": "It Chapter Two",
      "genre_ids": [
        27
      ],
      "title": "It Chapter Two",
      "vote_average": 6.9,
      "overview": "27 years after overcoming the malevolent supernatural entity Pennywise, the former members of the Losers' Club, who have grown up and moved away from Derry, are brought back together by a devastating phone call.",
      "release_date": "2019-09-06"
    },
    {
      "popularity": 99.5,
      "vote_count": 417,
      "video": false,
      "poster_path": "/uTALxjQU8e1lhmNjP9nnJ3t2pRU.jpg",
      "id": 453405,
      "adult": false,
      "backdrop_path": "/c3F4P2oauA7IQmy4hM0OmRt2W7d.jpg",
      "original_language": "en",
      "original_title": "Gemini Man",
      "genre_ids": [
        28,
        53
      ],
      "title": "Gemini Man",
      "vote_average": 5.8,
      "overview": "Henry Brogen, an aging assassin tries to get out of the business but finds himself in the ultimate battle: fighting his own clone who is 25 years younger than him and at the peak of his abilities.",
      "release_date": "2019-10-11"
    },
    {
      "popularity": 63.66,
      "vote_count": 3056,
      "video": false,
      "poster_path": "/ziEuG1essDuWuC5lpWUaw1uXY2O.jpg",
      "id": 458156,
      "adult": false,
      "backdrop_path": "/stemLQMLDrlpfIlZ5OjllOPT8QX.jpg",
      "original_language": "en",
      "original_title": "John Wick: Chapter 3 - Parabellum",
      "genre_ids": [
        28,
        80,
        53
      ],
      "title": "John Wick: Chapter 3 - Parabellum",
      "vote_average": 7.1,
      "overview": "Super-assassin John Wick returns with a $14 million price tag on his head and an army of bounty-hunting killers on his trail. After killing a member of the shadowy international assassin’s guild, the High Table, John Wick is excommunicado, but the world’s most ruthless hit men and women await his every turn.",
      "release_date": "2019-05-17"
    },
    {
      "popularity": 64.725,
      "vote_count": 81,
      "video": false,
      "poster_path": "/uaXNjRkDdjfxfVuKHo25wkA6CiA.jpg",
      "id": 481084,
      "adult": false,
      "backdrop_path": "/xS89uFXPKKwyWJgM7ljAmuAtDMh.jpg",
      "original_language": "en",
      "original_title": "The Addams Family",
      "genre_ids": [
        16,
        35,
        14,
        10751
      ],
      "title": "The Addams Family",
      "vote_average": 6,
      "overview": "The Addams family's lives begin to unravel when they face-off against a treacherous, greedy crafty reality-TV host while also preparing for their extended family to arrive for a major celebration.",
      "release_date": "2019-10-11"
    },
    {
      "popularity": 61.71,
      "vote_count": 25,
      "video": false,
      "poster_path": "/vS6TCG4HiUSCyX30f5wDGQDt1k3.jpg",
      "id": 428045,
      "adult": false,
      "backdrop_path": "/5yiCqzmxYv36GGdc05egCMHedbX.jpg",
      "original_language": "ru",
      "original_title": "Тайна Печати Дракона",
      "genre_ids": [
        12,
        14
      ],
      "title": "The Mystery of the Dragon’s Seal",
      "vote_average": 4.6,
      "overview": "The Russian Czar Peter the Great commissions Jonathan Green, an English traveller, to map the Far East territories of the Russian Empire. Green sets off on yet another long journey, full of unbelievable adventures, which eventually leads him to China. On his way, the famous cartographer makes breath-taking discoveries, meets mysterious creatures, Chinese princesses, deadly masters of oriental martial arts, and even Lun Van, the King of Dragons, himself. What could be more perilous than looking into the eyes of Viy? Only meeting him again… What will prevail this time — the unflinching scepticism of the scientist or ancient black magic, which has already gained influence over the Far East Lands?",
      "release_date": "2019-08-16"
    },
    {
      "popularity": 56.183,
      "vote_count": 21,
      "video": false,
      "poster_path": "/fjmMu9fpqMMF17mCyLhNfkagKB0.jpg",
      "id": 578189,
      "adult": false,
      "backdrop_path": "/zBAoNL50oFRCAJvEEQEKD8M48pV.jpg",
      "original_language": "en",
      "original_title": "Black and Blue",
      "genre_ids": [
        28,
        80,
        18
      ],
      "title": "Black and Blue",
      "vote_average": 5.8,
      "overview": "Exposure follows a rookie Detroit African-American female cop who stumbles upon corrupt officers who are murdering a drug dealer, an incident captured by her body cam. They pursue her through the night in an attempt to destroy the footage, but to make matters worse, they've tipped off a criminal gang that she's responsible for the dealer's death.",
      "release_date": "2019-10-25"
    },
    {
      "popularity": 51.996,
      "vote_count": 862,
      "video": false,
      "poster_path": "/1rjaRIAqFPQNnMtqSMLtg0VEABi.jpg",
      "id": 515195,
      "adult": false,
      "backdrop_path": "/t5Kp02Jzixl0KfpwthHp9ZUex9t.jpg",
      "original_language": "en",
      "original_title": "Yesterday",
      "genre_ids": [
        35,
        14,
        10402,
        10749
      ],
      "title": "Yesterday",
      "vote_average": 6.7,
      "overview": "Jack Malik is a struggling singer-songwriter in an English seaside town whose dreams of fame are rapidly fading, despite the fierce devotion and support of his childhood best friend, Ellie. After a freak bus accident during a mysterious global blackout, Jack wakes up to discover that he's the only person on Earth who can remember The Beatles.",
      "release_date": "2019-06-28"
    },
    {
      "popularity": 61.024,
      "vote_count": 942,
      "video": false,
      "poster_path": "/7IiTTgloJzvGI1TAYymCfbfl3vT.jpg",
      "id": 496243,
      "adult": false,
      "backdrop_path": "/TU9NIjwzjoKPwQHoHshkFcQUCG.jpg",
      "original_language": "ko",
      "original_title": "기생충",
      "genre_ids": [
        35,
        18,
        53
      ],
      "title": "Parasite",
      "vote_average": 8.5,
      "overview": "All unemployed, Ki-taek's family takes peculiar interest in the wealthy and glamorous Parks for their livelihood until they get entangled in an unexpected incident.",
      "release_date": "2019-10-11"
    },
    {
      "popularity": 49.522,
      "vote_count": 2462,
      "video": false,
      "poster_path": "/8j58iEBw9pOXFD2L0nt0ZXeHviB.jpg",
      "id": 466272,
      "adult": false,
      "backdrop_path": "/kKTPv9LKKs5L3oO1y5FNObxAPWI.jpg",
      "original_language": "en",
      "original_title": "Once Upon a Time... in Hollywood",
      "genre_ids": [
        35,
        18
      ],
      "title": "Once Upon a Time... in Hollywood",
      "vote_average": 7.6,
      "overview": "A faded television actor and his stunt double strive to achieve fame and success in the film industry during the final years of Hollywood's Golden Age in 1969 Los Angeles.",
      "release_date": "2019-07-26"
    },
    {
      "popularity": 43.526,
      "vote_count": 346,
      "video": false,
      "poster_path": "/zBhv8rsLOfpFW2M5b6wW78Uoojs.jpg",
      "id": 540901,
      "adult": false,
      "backdrop_path": "/jTab4cf4X1dJJVS4F8UOGuesvPd.jpg",
      "original_language": "en",
      "original_title": "Hustlers",
      "genre_ids": [
        35,
        80,
        18
      ],
      "title": "Hustlers",
      "vote_average": 6.1,
      "overview": "A crew of savvy former strip club employees band together to turn the tables on their Wall Street clients.",
      "release_date": "2019-09-13"
    },
    {
      "popularity": 54.01,
      "vote_count": 699,
      "video": false,
      "poster_path": "/9kOtMOUa5HrOiIG2Z9Anv7M8AbY.jpg",
      "id": 511987,
      "adult": false,
      "backdrop_path": "/lm4xH0YwFbVvTgdtau1thNK5S6J.jpg",
      "original_language": "en",
      "original_title": "Crawl",
      "genre_ids": [
        28,
        18,
        27,
        53
      ],
      "title": "Crawl",
      "vote_average": 6.1,
      "overview": "When a huge hurricane hits her hometown in Florida, Haley ignores evacuation orders to look for her father. After finding him badly wounded, both are trapped by the flood. With virtually no time to escape the storm, they discover that rising water levels are the least of their problems.",
      "release_date": "2019-07-12"
    }
  ],
  "page": 1,
  "total_results": 1425,
  "dates": {
    "maximum": "2019-10-27",
    "minimum": "2019-09-09"
  },
  "total_pages": 72
}