{
  "page": 1,
  "total_results": 2795,
  "total_pages": 140,
  "results": [
    {
      "popularity": 92.86,
      "vote_count": 1762,
      "video": false,
      "poster_path": "/zfE0R94v1E8cuKAerbskfD3VfUt.jpg",
      "id": 474350,
      "adult": false,
      "backdrop_path": "/8moTOzunF7p40oR5XhlDvJckOSW.jpg",
      "original_language": "en",
      "original_title": "It Chapter Two",
      "genre_ids": [
        27
      ],
      "title": "It Chapter Two",
      "vote_average": 6.9,
      "overview": "27 years after overcoming the malevolent supernatural entity Pennywise, the former members of the Losers' Club, who have grown up and moved away from Derry, are brought back together by a devastating phone call.",
      "release_date": "2019-09-06"
    }
  ]
}
